-------------------------------------------------------------------------------
Test set: runners.MyRunner
-------------------------------------------------------------------------------
Tests run: 4, Failures: 0, Errors: 0, Skipped: 0, Time elapsed: 8.205 s - in runners.MyRunner
